01-11-2023 16:47:41 +06 [request] {
  "userId": null,
  "application": null,
  "ipAddress": "::1",
  "version": "https",
  "host": "localhost:7128",
  "url": "POST https://localhost:7128/api/Blog",
  "source": null,
  "form": "",
  "body": {
    "name": "My Blog",
    "description": "My blog description",
    "motto": "Blog Motto",
    "posts": null,
    "id": 0
  },
  "response": {
    "statusCode": 200,
    "appStatusCode": "AP1300E",
    "isSuccess": true,
    "message": null,
    "data": {
      "name": "My Blog",
      "description": "My blog description",
      "motto": "Blog Motto",
      "posts": [],
      "id": 10303
    },
    "errors": null
  },
  "requestHeaders": {
    "Accept": [
      "application/json"
    ],
    "Host": [
      "localhost:7128"
    ],
    "User-Agent": [
      "Mozilla/5.0 (Windows NT 10.0; Win64; x64) AppleWebKit/537.36 (KHTML, like Gecko) Chrome/108.0.0.0 Safari/537.36 Edg/108.0.1462.76"
    ],
    ":method": [
      "POST"
    ],
    "Accept-Encoding": [
      "gzip, deflate, br"
    ],
    "Accept-Language": [
      "en-US,en;q=0.9"
    ],
    "Content-Type": [
      "application/json"
    ],
    "Cookie": [
      "ai_user=Om3pRtZZHcvb4iRyXnNlJR|2023-01-05T10:34:28.135Z"
    ],
    "Origin": [
      "https://localhost:7128"
    ],
    "Referer": [
      "https://localhost:7128/swagger/index.html"
    ],
    "Content-Length": [
      "116"
    ],
    "sec-ch-ua": [
      "\"Not?A_Brand\";v=\"8\", \"Chromium\";v=\"108\", \"Microsoft Edge\";v=\"108\""
    ],
    "sec-ch-ua-mobile": [
      "?0"
    ],
    "sec-ch-ua-platform": [
      "\"Windows\""
    ],
    "sec-fetch-site": [
      "same-origin"
    ],
    "sec-fetch-mode": [
      "cors"
    ],
    "sec-fetch-dest": [
      "empty"
    ]
  },
  "responseHeaders": {
    "Accept": [
      "application/json"
    ],
    "Host": [
      "localhost:7128"
    ],
    "User-Agent": [
      "Mozilla/5.0 (Windows NT 10.0; Win64; x64) AppleWebKit/537.36 (KHTML, like Gecko) Chrome/108.0.0.0 Safari/537.36 Edg/108.0.1462.76"
    ],
    ":method": [
      "POST"
    ],
    "Accept-Encoding": [
      "gzip, deflate, br"
    ],
    "Accept-Language": [
      "en-US,en;q=0.9"
    ],
    "Content-Type": [
      "application/json"
    ],
    "Cookie": [
      "ai_user=Om3pRtZZHcvb4iRyXnNlJR|2023-01-05T10:34:28.135Z"
    ],
    "Origin": [
      "https://localhost:7128"
    ],
    "Referer": [
      "https://localhost:7128/swagger/index.html"
    ],
    "Content-Length": [
      "116"
    ],
    "sec-ch-ua": [
      "\"Not?A_Brand\";v=\"8\", \"Chromium\";v=\"108\", \"Microsoft Edge\";v=\"108\""
    ],
    "sec-ch-ua-mobile": [
      "?0"
    ],
    "sec-ch-ua-platform": [
      "\"Windows\""
    ],
    "sec-fetch-site": [
      "same-origin"
    ],
    "sec-fetch-mode": [
      "cors"
    ],
    "sec-fetch-dest": [
      "empty"
    ]
  },
  "scheme": "https",
  "traceId": "0HMNJO4UU5D1J:00000009",
  "proctocol": "HTTP/2",
  "area": null,
  "controllerName": null,
  "actionName": null,
  "executionDuration": 0.0,
  "roleId": null,
  "languageId": null,
  "isFirstLogin": null,
  "loggedInDateTimeUtc": null,
  "loggedOutDateTimeUtc": null,
  "loginStatus": null,
  "pageAccessed": null,
  "sessionId": null,
  "urlReferrer": null,
  "statusCode": 200,
  "appStatusCode": "*****",
  "createdDateUtc": null
}
----------------------------------------------------------------------------------
01-11-2023 16:53:08 +06 [request] {
  "userId": null,
  "application": null,
  "ipAddress": "::1",
  "version": "https",
  "host": "localhost:7128",
  "url": "GET https://localhost:7128/api/Blog/search?pageIndex=0&pageSize=10",
  "source": null,
  "form": "",
  "body": null,
  "response": {
    "title": "One or more validation errors occurred.",
    "status": 400,
    "errors": {
      "searchText": [
        "The searchText field is required."
      ]
    }
  },
  "requestHeaders": {
    "Accept": [
      "*/*"
    ],
    "Host": [
      "localhost:7128"
    ],
    "User-Agent": [
      "Mozilla/5.0 (Windows NT 10.0; Win64; x64) AppleWebKit/537.36 (KHTML, like Gecko) Chrome/108.0.0.0 Safari/537.36 Edg/108.0.1462.76"
    ],
    ":method": [
      "GET"
    ],
    "Accept-Encoding": [
      "gzip, deflate, br"
    ],
    "Accept-Language": [
      "en-US,en;q=0.9"
    ],
    "Cookie": [
      "ai_user=Om3pRtZZHcvb4iRyXnNlJR|2023-01-05T10:34:28.135Z"
    ],
    "Referer": [
      "https://localhost:7128/swagger/index.html"
    ],
    "sec-ch-ua": [
      "\"Not?A_Brand\";v=\"8\", \"Chromium\";v=\"108\", \"Microsoft Edge\";v=\"108\""
    ],
    "sec-ch-ua-mobile": [
      "?0"
    ],
    "sec-ch-ua-platform": [
      "\"Windows\""
    ],
    "sec-fetch-site": [
      "same-origin"
    ],
    "sec-fetch-mode": [
      "cors"
    ],
    "sec-fetch-dest": [
      "empty"
    ]
  },
  "responseHeaders": {
    "Accept": [
      "*/*"
    ],
    "Host": [
      "localhost:7128"
    ],
    "User-Agent": [
      "Mozilla/5.0 (Windows NT 10.0; Win64; x64) AppleWebKit/537.36 (KHTML, like Gecko) Chrome/108.0.0.0 Safari/537.36 Edg/108.0.1462.76"
    ],
    ":method": [
      "GET"
    ],
    "Accept-Encoding": [
      "gzip, deflate, br"
    ],
    "Accept-Language": [
      "en-US,en;q=0.9"
    ],
    "Cookie": [
      "ai_user=Om3pRtZZHcvb4iRyXnNlJR|2023-01-05T10:34:28.135Z"
    ],
    "Referer": [
      "https://localhost:7128/swagger/index.html"
    ],
    "sec-ch-ua": [
      "\"Not?A_Brand\";v=\"8\", \"Chromium\";v=\"108\", \"Microsoft Edge\";v=\"108\""
    ],
    "sec-ch-ua-mobile": [
      "?0"
    ],
    "sec-ch-ua-platform": [
      "\"Windows\""
    ],
    "sec-fetch-site": [
      "same-origin"
    ],
    "sec-fetch-mode": [
      "cors"
    ],
    "sec-fetch-dest": [
      "empty"
    ]
  },
  "scheme": "https",
  "traceId": "0HMNJO7LD12Q0:0000000B",
  "proctocol": "HTTP/2",
  "area": null,
  "controllerName": null,
  "actionName": null,
  "executionDuration": 0.0,
  "roleId": null,
  "languageId": null,
  "isFirstLogin": null,
  "loggedInDateTimeUtc": null,
  "loggedOutDateTimeUtc": null,
  "loginStatus": null,
  "pageAccessed": null,
  "sessionId": null,
  "urlReferrer": null,
  "statusCode": 200,
  "appStatusCode": "*****",
  "createdDateUtc": null
}
----------------------------------------------------------------------------------
01-11-2023 16:55:16 +06 [request] {
  "userId": null,
  "application": null,
  "ipAddress": "::1",
  "version": "https",
  "host": "localhost:7128",
  "url": "GET https://localhost:7128/api/Blog/search?pageIndex=0&pageSize=10&searchText=trt",
  "source": null,
  "form": "",
  "body": null,
  "response": {
    "statusCode": 200,
    "appStatusCode": "AP1300E",
    "isSuccess": true,
    "message": null,
    "data": {
      "data": [
        {
          "name": "trtiurRefat",
          "description": "hgjgkh",
          "motto": "dsfsgsd",
          "posts": [],
          "id": 31
        }
      ],
      "total": 1,
      "pageIndex": 0,
      "pageSize": 10,
      "currentPage": 1,
      "totalPage": 1,
      "hasPreviousPage": false,
      "hasNextPage": false
    },
    "errors": null
  },
  "requestHeaders": {
    "Accept": [
      "*/*"
    ],
    "Host": [
      "localhost:7128"
    ],
    "User-Agent": [
      "Mozilla/5.0 (Windows NT 10.0; Win64; x64) AppleWebKit/537.36 (KHTML, like Gecko) Chrome/108.0.0.0 Safari/537.36 Edg/108.0.1462.76"
    ],
    ":method": [
      "GET"
    ],
    "Accept-Encoding": [
      "gzip, deflate, br"
    ],
    "Accept-Language": [
      "en-US,en;q=0.9"
    ],
    "Cookie": [
      "ai_user=Om3pRtZZHcvb4iRyXnNlJR|2023-01-05T10:34:28.135Z"
    ],
    "Referer": [
      "https://localhost:7128/swagger/index.html"
    ],
    "sec-ch-ua": [
      "\"Not?A_Brand\";v=\"8\", \"Chromium\";v=\"108\", \"Microsoft Edge\";v=\"108\""
    ],
    "sec-ch-ua-mobile": [
      "?0"
    ],
    "sec-ch-ua-platform": [
      "\"Windows\""
    ],
    "sec-fetch-site": [
      "same-origin"
    ],
    "sec-fetch-mode": [
      "cors"
    ],
    "sec-fetch-dest": [
      "empty"
    ]
  },
  "responseHeaders": {
    "Accept": [
      "*/*"
    ],
    "Host": [
      "localhost:7128"
    ],
    "User-Agent": [
      "Mozilla/5.0 (Windows NT 10.0; Win64; x64) AppleWebKit/537.36 (KHTML, like Gecko) Chrome/108.0.0.0 Safari/537.36 Edg/108.0.1462.76"
    ],
    ":method": [
      "GET"
    ],
    "Accept-Encoding": [
      "gzip, deflate, br"
    ],
    "Accept-Language": [
      "en-US,en;q=0.9"
    ],
    "Cookie": [
      "ai_user=Om3pRtZZHcvb4iRyXnNlJR|2023-01-05T10:34:28.135Z"
    ],
    "Referer": [
      "https://localhost:7128/swagger/index.html"
    ],
    "sec-ch-ua": [
      "\"Not?A_Brand\";v=\"8\", \"Chromium\";v=\"108\", \"Microsoft Edge\";v=\"108\""
    ],
    "sec-ch-ua-mobile": [
      "?0"
    ],
    "sec-ch-ua-platform": [
      "\"Windows\""
    ],
    "sec-fetch-site": [
      "same-origin"
    ],
    "sec-fetch-mode": [
      "cors"
    ],
    "sec-fetch-dest": [
      "empty"
    ]
  },
  "scheme": "https",
  "traceId": "0HMNJO95OSR5R:00000009",
  "proctocol": "HTTP/2",
  "area": null,
  "controllerName": null,
  "actionName": null,
  "executionDuration": 0.0,
  "roleId": null,
  "languageId": null,
  "isFirstLogin": null,
  "loggedInDateTimeUtc": null,
  "loggedOutDateTimeUtc": null,
  "loginStatus": null,
  "pageAccessed": null,
  "sessionId": null,
  "urlReferrer": null,
  "statusCode": 200,
  "appStatusCode": "*****",
  "createdDateUtc": null
}
----------------------------------------------------------------------------------
01-11-2023 16:55:37 +06 [request] {
  "userId": null,
  "application": null,
  "ipAddress": "::1",
  "version": "https",
  "host": "localhost:7128",
  "url": "GET https://localhost:7128/api/Blog/search?pageSize=10",
  "source": null,
  "form": "",
  "body": null,
  "response": {
    "title": "One or more validation errors occurred.",
    "status": 400,
    "errors": {
      "searchText": [
        "The searchText field is required."
      ]
    }
  },
  "requestHeaders": {
    "Accept": [
      "*/*"
    ],
    "Host": [
      "localhost:7128"
    ],
    "User-Agent": [
      "Mozilla/5.0 (Windows NT 10.0; Win64; x64) AppleWebKit/537.36 (KHTML, like Gecko) Chrome/108.0.0.0 Safari/537.36 Edg/108.0.1462.76"
    ],
    ":method": [
      "GET"
    ],
    "Accept-Encoding": [
      "gzip, deflate, br"
    ],
    "Accept-Language": [
      "en-US,en;q=0.9"
    ],
    "Cookie": [
      "ai_user=Om3pRtZZHcvb4iRyXnNlJR|2023-01-05T10:34:28.135Z"
    ],
    "Referer": [
      "https://localhost:7128/swagger/index.html"
    ],
    "sec-ch-ua": [
      "\"Not?A_Brand\";v=\"8\", \"Chromium\";v=\"108\", \"Microsoft Edge\";v=\"108\""
    ],
    "sec-ch-ua-mobile": [
      "?0"
    ],
    "sec-ch-ua-platform": [
      "\"Windows\""
    ],
    "sec-fetch-site": [
      "same-origin"
    ],
    "sec-fetch-mode": [
      "cors"
    ],
    "sec-fetch-dest": [
      "empty"
    ]
  },
  "responseHeaders": {
    "Accept": [
      "*/*"
    ],
    "Host": [
      "localhost:7128"
    ],
    "User-Agent": [
      "Mozilla/5.0 (Windows NT 10.0; Win64; x64) AppleWebKit/537.36 (KHTML, like Gecko) Chrome/108.0.0.0 Safari/537.36 Edg/108.0.1462.76"
    ],
    ":method": [
      "GET"
    ],
    "Accept-Encoding": [
      "gzip, deflate, br"
    ],
    "Accept-Language": [
      "en-US,en;q=0.9"
    ],
    "Cookie": [
      "ai_user=Om3pRtZZHcvb4iRyXnNlJR|2023-01-05T10:34:28.135Z"
    ],
    "Referer": [
      "https://localhost:7128/swagger/index.html"
    ],
    "sec-ch-ua": [
      "\"Not?A_Brand\";v=\"8\", \"Chromium\";v=\"108\", \"Microsoft Edge\";v=\"108\""
    ],
    "sec-ch-ua-mobile": [
      "?0"
    ],
    "sec-ch-ua-platform": [
      "\"Windows\""
    ],
    "sec-fetch-site": [
      "same-origin"
    ],
    "sec-fetch-mode": [
      "cors"
    ],
    "sec-fetch-dest": [
      "empty"
    ]
  },
  "scheme": "https",
  "traceId": "0HMNJO95OSR5R:0000000B",
  "proctocol": "HTTP/2",
  "area": null,
  "controllerName": null,
  "actionName": null,
  "executionDuration": 0.0,
  "roleId": null,
  "languageId": null,
  "isFirstLogin": null,
  "loggedInDateTimeUtc": null,
  "loggedOutDateTimeUtc": null,
  "loginStatus": null,
  "pageAccessed": null,
  "sessionId": null,
  "urlReferrer": null,
  "statusCode": 200,
  "appStatusCode": "*****",
  "createdDateUtc": null
}
----------------------------------------------------------------------------------
01-11-2023 16:55:45 +06 [request] {
  "userId": null,
  "application": null,
  "ipAddress": "::1",
  "version": "https",
  "host": "localhost:7128",
  "url": "GET https://localhost:7128/api/Blog/search?pageSize=10&searchText=jhyfg",
  "source": null,
  "form": "",
  "body": null,
  "response": {
    "statusCode": 200,
    "appStatusCode": "AP1300E",
    "isSuccess": true,
    "message": null,
    "data": {
      "data": [],
      "total": 0,
      "pageIndex": 0,
      "pageSize": 10,
      "currentPage": 0,
      "totalPage": 0,
      "hasPreviousPage": false,
      "hasNextPage": false
    },
    "errors": null
  },
  "requestHeaders": {
    "Accept": [
      "*/*"
    ],
    "Host": [
      "localhost:7128"
    ],
    "User-Agent": [
      "Mozilla/5.0 (Windows NT 10.0; Win64; x64) AppleWebKit/537.36 (KHTML, like Gecko) Chrome/108.0.0.0 Safari/537.36 Edg/108.0.1462.76"
    ],
    ":method": [
      "GET"
    ],
    "Accept-Encoding": [
      "gzip, deflate, br"
    ],
    "Accept-Language": [
      "en-US,en;q=0.9"
    ],
    "Cookie": [
      "ai_user=Om3pRtZZHcvb4iRyXnNlJR|2023-01-05T10:34:28.135Z"
    ],
    "Referer": [
      "https://localhost:7128/swagger/index.html"
    ],
    "sec-ch-ua": [
      "\"Not?A_Brand\";v=\"8\", \"Chromium\";v=\"108\", \"Microsoft Edge\";v=\"108\""
    ],
    "sec-ch-ua-mobile": [
      "?0"
    ],
    "sec-ch-ua-platform": [
      "\"Windows\""
    ],
    "sec-fetch-site": [
      "same-origin"
    ],
    "sec-fetch-mode": [
      "cors"
    ],
    "sec-fetch-dest": [
      "empty"
    ]
  },
  "responseHeaders": {
    "Accept": [
      "*/*"
    ],
    "Host": [
      "localhost:7128"
    ],
    "User-Agent": [
      "Mozilla/5.0 (Windows NT 10.0; Win64; x64) AppleWebKit/537.36 (KHTML, like Gecko) Chrome/108.0.0.0 Safari/537.36 Edg/108.0.1462.76"
    ],
    ":method": [
      "GET"
    ],
    "Accept-Encoding": [
      "gzip, deflate, br"
    ],
    "Accept-Language": [
      "en-US,en;q=0.9"
    ],
    "Cookie": [
      "ai_user=Om3pRtZZHcvb4iRyXnNlJR|2023-01-05T10:34:28.135Z"
    ],
    "Referer": [
      "https://localhost:7128/swagger/index.html"
    ],
    "sec-ch-ua": [
      "\"Not?A_Brand\";v=\"8\", \"Chromium\";v=\"108\", \"Microsoft Edge\";v=\"108\""
    ],
    "sec-ch-ua-mobile": [
      "?0"
    ],
    "sec-ch-ua-platform": [
      "\"Windows\""
    ],
    "sec-fetch-site": [
      "same-origin"
    ],
    "sec-fetch-mode": [
      "cors"
    ],
    "sec-fetch-dest": [
      "empty"
    ]
  },
  "scheme": "https",
  "traceId": "0HMNJO95OSR5R:0000000D",
  "proctocol": "HTTP/2",
  "area": null,
  "controllerName": null,
  "actionName": null,
  "executionDuration": 0.0,
  "roleId": null,
  "languageId": null,
  "isFirstLogin": null,
  "loggedInDateTimeUtc": null,
  "loggedOutDateTimeUtc": null,
  "loginStatus": null,
  "pageAccessed": null,
  "sessionId": null,
  "urlReferrer": null,
  "statusCode": 200,
  "appStatusCode": "*****",
  "createdDateUtc": null
}
----------------------------------------------------------------------------------
01-11-2023 16:55:51 +06 [request] {
  "userId": null,
  "application": null,
  "ipAddress": "::1",
  "version": "https",
  "host": "localhost:7128",
  "url": "GET https://localhost:7128/api/Blog/search?pageSize=10&searchText=%20",
  "source": null,
  "form": "",
  "body": null,
  "response": {
    "title": "One or more validation errors occurred.",
    "status": 400,
    "errors": {
      "searchText": [
        "The searchText field is required."
      ]
    }
  },
  "requestHeaders": {
    "Accept": [
      "*/*"
    ],
    "Host": [
      "localhost:7128"
    ],
    "User-Agent": [
      "Mozilla/5.0 (Windows NT 10.0; Win64; x64) AppleWebKit/537.36 (KHTML, like Gecko) Chrome/108.0.0.0 Safari/537.36 Edg/108.0.1462.76"
    ],
    ":method": [
      "GET"
    ],
    "Accept-Encoding": [
      "gzip, deflate, br"
    ],
    "Accept-Language": [
      "en-US,en;q=0.9"
    ],
    "Cookie": [
      "ai_user=Om3pRtZZHcvb4iRyXnNlJR|2023-01-05T10:34:28.135Z"
    ],
    "Referer": [
      "https://localhost:7128/swagger/index.html"
    ],
    "sec-ch-ua": [
      "\"Not?A_Brand\";v=\"8\", \"Chromium\";v=\"108\", \"Microsoft Edge\";v=\"108\""
    ],
    "sec-ch-ua-mobile": [
      "?0"
    ],
    "sec-ch-ua-platform": [
      "\"Windows\""
    ],
    "sec-fetch-site": [
      "same-origin"
    ],
    "sec-fetch-mode": [
      "cors"
    ],
    "sec-fetch-dest": [
      "empty"
    ]
  },
  "responseHeaders": {
    "Accept": [
      "*/*"
    ],
    "Host": [
      "localhost:7128"
    ],
    "User-Agent": [
      "Mozilla/5.0 (Windows NT 10.0; Win64; x64) AppleWebKit/537.36 (KHTML, like Gecko) Chrome/108.0.0.0 Safari/537.36 Edg/108.0.1462.76"
    ],
    ":method": [
      "GET"
    ],
    "Accept-Encoding": [
      "gzip, deflate, br"
    ],
    "Accept-Language": [
      "en-US,en;q=0.9"
    ],
    "Cookie": [
      "ai_user=Om3pRtZZHcvb4iRyXnNlJR|2023-01-05T10:34:28.135Z"
    ],
    "Referer": [
      "https://localhost:7128/swagger/index.html"
    ],
    "sec-ch-ua": [
      "\"Not?A_Brand\";v=\"8\", \"Chromium\";v=\"108\", \"Microsoft Edge\";v=\"108\""
    ],
    "sec-ch-ua-mobile": [
      "?0"
    ],
    "sec-ch-ua-platform": [
      "\"Windows\""
    ],
    "sec-fetch-site": [
      "same-origin"
    ],
    "sec-fetch-mode": [
      "cors"
    ],
    "sec-fetch-dest": [
      "empty"
    ]
  },
  "scheme": "https",
  "traceId": "0HMNJO95OSR5R:0000000F",
  "proctocol": "HTTP/2",
  "area": null,
  "controllerName": null,
  "actionName": null,
  "executionDuration": 0.0,
  "roleId": null,
  "languageId": null,
  "isFirstLogin": null,
  "loggedInDateTimeUtc": null,
  "loggedOutDateTimeUtc": null,
  "loginStatus": null,
  "pageAccessed": null,
  "sessionId": null,
  "urlReferrer": null,
  "statusCode": 200,
  "appStatusCode": "*****",
  "createdDateUtc": null
}
----------------------------------------------------------------------------------
01-11-2023 18:14:39 +06 [request] {
  "userId": null,
  "application": null,
  "ipAddress": "::1",
  "version": "https",
  "host": "localhost:7128",
  "url": "POST https://localhost:7128/api/Blog",
  "source": null,
  "form": "",
  "body": {
    "name": "My Blog",
    "description": "My blog description",
    "motto": "Blog Motto",
    "posts": null,
    "id": 0
  },
  "response": {
    "statusCode": 200,
    "appStatusCode": "AP1300E",
    "isSuccess": true,
    "message": null,
    "data": {
      "name": "My Blog",
      "description": "My blog description",
      "motto": "Blog Motto",
      "posts": [],
      "id": 10308
    },
    "errors": null
  },
  "requestHeaders": {
    "Accept": [
      "application/json"
    ],
    "Host": [
      "localhost:7128"
    ],
    "User-Agent": [
      "Mozilla/5.0 (Windows NT 10.0; Win64; x64) AppleWebKit/537.36 (KHTML, like Gecko) Chrome/108.0.0.0 Safari/537.36 Edg/108.0.1462.76"
    ],
    ":method": [
      "POST"
    ],
    "Accept-Encoding": [
      "gzip, deflate, br"
    ],
    "Accept-Language": [
      "en-US,en;q=0.9"
    ],
    "Content-Type": [
      "application/json"
    ],
    "Cookie": [
      "ai_user=Om3pRtZZHcvb4iRyXnNlJR|2023-01-05T10:34:28.135Z"
    ],
    "Origin": [
      "https://localhost:7128"
    ],
    "Referer": [
      "https://localhost:7128/swagger/index.html"
    ],
    "Content-Length": [
      "116"
    ],
    "sec-ch-ua": [
      "\"Not?A_Brand\";v=\"8\", \"Chromium\";v=\"108\", \"Microsoft Edge\";v=\"108\""
    ],
    "sec-ch-ua-mobile": [
      "?0"
    ],
    "sec-ch-ua-platform": [
      "\"Windows\""
    ],
    "sec-fetch-site": [
      "same-origin"
    ],
    "sec-fetch-mode": [
      "cors"
    ],
    "sec-fetch-dest": [
      "empty"
    ]
  },
  "responseHeaders": {
    "Accept": [
      "application/json"
    ],
    "Host": [
      "localhost:7128"
    ],
    "User-Agent": [
      "Mozilla/5.0 (Windows NT 10.0; Win64; x64) AppleWebKit/537.36 (KHTML, like Gecko) Chrome/108.0.0.0 Safari/537.36 Edg/108.0.1462.76"
    ],
    ":method": [
      "POST"
    ],
    "Accept-Encoding": [
      "gzip, deflate, br"
    ],
    "Accept-Language": [
      "en-US,en;q=0.9"
    ],
    "Content-Type": [
      "application/json"
    ],
    "Cookie": [
      "ai_user=Om3pRtZZHcvb4iRyXnNlJR|2023-01-05T10:34:28.135Z"
    ],
    "Origin": [
      "https://localhost:7128"
    ],
    "Referer": [
      "https://localhost:7128/swagger/index.html"
    ],
    "Content-Length": [
      "116"
    ],
    "sec-ch-ua": [
      "\"Not?A_Brand\";v=\"8\", \"Chromium\";v=\"108\", \"Microsoft Edge\";v=\"108\""
    ],
    "sec-ch-ua-mobile": [
      "?0"
    ],
    "sec-ch-ua-platform": [
      "\"Windows\""
    ],
    "sec-fetch-site": [
      "same-origin"
    ],
    "sec-fetch-mode": [
      "cors"
    ],
    "sec-fetch-dest": [
      "empty"
    ]
  },
  "scheme": "https",
  "traceId": "0HMNJPLBS0FGI:00000009",
  "proctocol": "HTTP/2",
  "area": null,
  "controllerName": null,
  "actionName": null,
  "executionDuration": 0.0,
  "roleId": null,
  "languageId": null,
  "isFirstLogin": null,
  "loggedInDateTimeUtc": null,
  "loggedOutDateTimeUtc": null,
  "loginStatus": null,
  "pageAccessed": null,
  "sessionId": null,
  "urlReferrer": null,
  "statusCode": 200,
  "appStatusCode": "*****",
  "createdDateUtc": null
}
----------------------------------------------------------------------------------
01-11-2023 18:15:41 +06 [request] {
  "userId": null,
  "application": null,
  "ipAddress": "::1",
  "version": "https",
  "host": "localhost:7128",
  "url": "GET https://localhost:7128/api/Blog/search?pageIndex=0&pageSize=10&searchText=My%20Blog",
  "source": null,
  "form": "",
  "body": null,
  "response": {
    "statusCode": 200,
    "appStatusCode": "AP1300E",
    "isSuccess": true,
    "message": null,
    "data": {
      "data": [
        {
          "name": "My Blog",
          "description": "My blog description",
          "motto": "Blog Motto",
          "posts": [],
          "id": 47
        },
        {
          "name": "My Blog",
          "description": "My blog description",
          "motto": "Blog Motto",
          "posts": [],
          "id": 48
        },
        {
          "name": "My Blog",
          "description": "My blog description",
          "motto": "Blog Motto",
          "posts": [],
          "id": 49
        },
        {
          "name": "My Blog",
          "description": "My blog description",
          "motto": "Blog Motto",
          "posts": [],
          "id": 50
        },
        {
          "name": "My Blog",
          "description": "My blog description",
          "motto": "Blog Motto",
          "posts": [],
          "id": 51
        },
        {
          "name": "My Blog",
          "description": "My blog description",
          "motto": "Blog Motto",
          "posts": [],
          "id": 52
        },
        {
          "name": "My Blog",
          "description": "My blog description",
          "motto": "Blog Motto",
          "posts": [],
          "id": 53
        },
        {
          "name": "My Blog",
          "description": "My blog description",
          "motto": "Blog Motto",
          "posts": [],
          "id": 54
        },
        {
          "name": "My Blog",
          "description": "My blog description",
          "motto": "Blog Motto",
          "posts": [],
          "id": 55
        },
        {
          "name": "My Blog",
          "description": "My blog description",
          "motto": "Blog Motto",
          "posts": [],
          "id": 56
        }
      ],
      "total": 310,
      "pageIndex": 0,
      "pageSize": 10,
      "currentPage": 1,
      "totalPage": 31,
      "hasPreviousPage": false,
      "hasNextPage": true
    },
    "errors": null
  },
  "requestHeaders": {
    "Accept": [
      "*/*"
    ],
    "Host": [
      "localhost:7128"
    ],
    "User-Agent": [
      "Mozilla/5.0 (Windows NT 10.0; Win64; x64) AppleWebKit/537.36 (KHTML, like Gecko) Chrome/108.0.0.0 Safari/537.36 Edg/108.0.1462.76"
    ],
    ":method": [
      "GET"
    ],
    "Accept-Encoding": [
      "gzip, deflate, br"
    ],
    "Accept-Language": [
      "en-US,en;q=0.9"
    ],
    "Cookie": [
      "ai_user=Om3pRtZZHcvb4iRyXnNlJR|2023-01-05T10:34:28.135Z"
    ],
    "Referer": [
      "https://localhost:7128/swagger/index.html"
    ],
    "sec-ch-ua": [
      "\"Not?A_Brand\";v=\"8\", \"Chromium\";v=\"108\", \"Microsoft Edge\";v=\"108\""
    ],
    "sec-ch-ua-mobile": [
      "?0"
    ],
    "sec-ch-ua-platform": [
      "\"Windows\""
    ],
    "sec-fetch-site": [
      "same-origin"
    ],
    "sec-fetch-mode": [
      "cors"
    ],
    "sec-fetch-dest": [
      "empty"
    ]
  },
  "responseHeaders": {
    "Accept": [
      "*/*"
    ],
    "Host": [
      "localhost:7128"
    ],
    "User-Agent": [
      "Mozilla/5.0 (Windows NT 10.0; Win64; x64) AppleWebKit/537.36 (KHTML, like Gecko) Chrome/108.0.0.0 Safari/537.36 Edg/108.0.1462.76"
    ],
    ":method": [
      "GET"
    ],
    "Accept-Encoding": [
      "gzip, deflate, br"
    ],
    "Accept-Language": [
      "en-US,en;q=0.9"
    ],
    "Cookie": [
      "ai_user=Om3pRtZZHcvb4iRyXnNlJR|2023-01-05T10:34:28.135Z"
    ],
    "Referer": [
      "https://localhost:7128/swagger/index.html"
    ],
    "sec-ch-ua": [
      "\"Not?A_Brand\";v=\"8\", \"Chromium\";v=\"108\", \"Microsoft Edge\";v=\"108\""
    ],
    "sec-ch-ua-mobile": [
      "?0"
    ],
    "sec-ch-ua-platform": [
      "\"Windows\""
    ],
    "sec-fetch-site": [
      "same-origin"
    ],
    "sec-fetch-mode": [
      "cors"
    ],
    "sec-fetch-dest": [
      "empty"
    ]
  },
  "scheme": "https",
  "traceId": "0HMNJPLBS0FGI:0000000B",
  "proctocol": "HTTP/2",
  "area": null,
  "controllerName": null,
  "actionName": null,
  "executionDuration": 0.0,
  "roleId": null,
  "languageId": null,
  "isFirstLogin": null,
  "loggedInDateTimeUtc": null,
  "loggedOutDateTimeUtc": null,
  "loginStatus": null,
  "pageAccessed": null,
  "sessionId": null,
  "urlReferrer": null,
  "statusCode": 200,
  "appStatusCode": "*****",
  "createdDateUtc": null
}
----------------------------------------------------------------------------------
01-11-2023 18:18:16 +06 [request] {
  "userId": null,
  "application": null,
  "ipAddress": "::1",
  "version": "https",
  "host": "localhost:7128",
  "url": "POST https://localhost:7128/api/Blog/add",
  "source": null,
  "form": "",
  "body": {
    "name": "My Blog",
    "description": "My blog description",
    "motto": "Blog Motto",
    "posts": null,
    "id": 0
  },
  "response": {
    "statusCode": 200,
    "appStatusCode": "AP1300E",
    "isSuccess": true,
    "message": null,
    "data": {
      "name": "My Blog",
      "description": "My blog description",
      "motto": "Blog Motto",
      "posts": [],
      "id": 10309
    },
    "errors": null
  },
  "requestHeaders": {
    "Accept": [
      "*/*"
    ],
    "Host": [
      "localhost:7128"
    ],
    "User-Agent": [
      "Mozilla/5.0 (Windows NT 10.0; Win64; x64) AppleWebKit/537.36 (KHTML, like Gecko) Chrome/108.0.0.0 Safari/537.36 Edg/108.0.1462.76"
    ],
    ":method": [
      "POST"
    ],
    "Accept-Encoding": [
      "gzip, deflate, br"
    ],
    "Accept-Language": [
      "en-US,en;q=0.9"
    ],
    "Content-Type": [
      "application/json"
    ],
    "Cookie": [
      "ai_user=Om3pRtZZHcvb4iRyXnNlJR|2023-01-05T10:34:28.135Z"
    ],
    "Origin": [
      "https://localhost:7128"
    ],
    "Referer": [
      "https://localhost:7128/swagger/index.html"
    ],
    "Content-Length": [
      "116"
    ],
    "sec-ch-ua": [
      "\"Not?A_Brand\";v=\"8\", \"Chromium\";v=\"108\", \"Microsoft Edge\";v=\"108\""
    ],
    "sec-ch-ua-mobile": [
      "?0"
    ],
    "sec-ch-ua-platform": [
      "\"Windows\""
    ],
    "sec-fetch-site": [
      "same-origin"
    ],
    "sec-fetch-mode": [
      "cors"
    ],
    "sec-fetch-dest": [
      "empty"
    ]
  },
  "responseHeaders": {
    "Accept": [
      "*/*"
    ],
    "Host": [
      "localhost:7128"
    ],
    "User-Agent": [
      "Mozilla/5.0 (Windows NT 10.0; Win64; x64) AppleWebKit/537.36 (KHTML, like Gecko) Chrome/108.0.0.0 Safari/537.36 Edg/108.0.1462.76"
    ],
    ":method": [
      "POST"
    ],
    "Accept-Encoding": [
      "gzip, deflate, br"
    ],
    "Accept-Language": [
      "en-US,en;q=0.9"
    ],
    "Content-Type": [
      "application/json"
    ],
    "Cookie": [
      "ai_user=Om3pRtZZHcvb4iRyXnNlJR|2023-01-05T10:34:28.135Z"
    ],
    "Origin": [
      "https://localhost:7128"
    ],
    "Referer": [
      "https://localhost:7128/swagger/index.html"
    ],
    "Content-Length": [
      "116"
    ],
    "sec-ch-ua": [
      "\"Not?A_Brand\";v=\"8\", \"Chromium\";v=\"108\", \"Microsoft Edge\";v=\"108\""
    ],
    "sec-ch-ua-mobile": [
      "?0"
    ],
    "sec-ch-ua-platform": [
      "\"Windows\""
    ],
    "sec-fetch-site": [
      "same-origin"
    ],
    "sec-fetch-mode": [
      "cors"
    ],
    "sec-fetch-dest": [
      "empty"
    ]
  },
  "scheme": "https",
  "traceId": "0HMNJPLBS0FGI:0000000D",
  "proctocol": "HTTP/2",
  "area": null,
  "controllerName": null,
  "actionName": null,
  "executionDuration": 0.0,
  "roleId": null,
  "languageId": null,
  "isFirstLogin": null,
  "loggedInDateTimeUtc": null,
  "loggedOutDateTimeUtc": null,
  "loginStatus": null,
  "pageAccessed": null,
  "sessionId": null,
  "urlReferrer": null,
  "statusCode": 200,
  "appStatusCode": "*****",
  "createdDateUtc": null
}
----------------------------------------------------------------------------------
